{
  "EDITOR_STATE": {
    "allProjectFiles": {
      "9b13d176-17cc-4f68-8946-a8e828e592d7": {
        "id": "9b13d176-17cc-4f68-8946-a8e828e592d7",
        "parent": null,
        "name": "testFfoxinduuu.js",
        "type": "JS_LAMBDA",
        "isDirectory": false,
        "children": [],
        "isRemovable": true,
        "filePath": "testFfoxinduuu.js",
        "cursor": {
          "lineNumber": 2,
          "column": 5
        },
        "config": {
          "runtime": "nodejs10.x",
          "handler": "handler",
          "timeout": 60,
          "memory": 128,
          "layers": []
        },
        "triggers": []
      }
    },
    "openFiles": [
      "9b13d176-17cc-4f68-8946-a8e828e592d7"
    ],
    "currentFileId": "9b13d176-17cc-4f68-8946-a8e828e592d7",
    "resources": {},
    "customTemplate": {
      "dialect": null,
      "definitions": null
    },
    "envVariables": [
      {
        "lambdaId": "all",
        "varKey": "SIGMA_AWS_ACC_ID",
        "varValue": null,
        "shouldPersist": false,
        "displayOnly": false,
        "editable": false
      }
    ],
    "packageJSON": {
      "dependencies": {}
    }
  },
  "PROJECT_META": {
    "projectName": "testFfoxinduuu",
    "projectDescription": "",
    "projectVersion": "1.0.0",
    "projectRegion": "us-east-1",
    "platform": "AWS",
    "platformRegions": {},
    "lastSave": 1584436482966,
    "language": "nodejs"
  },
  "VCS_STATE": {
    "provider": "GitLab",
    "repo": {
      "name": "testffoxinduuu",
      "url": "https://gitlab.com/indunilsachithra1992/testffoxinduuu"
    }
  }
}